EESchema Schematic File Version 4
EELAYER 30 0
EELAYER END
$Descr A3 16535 11693
encoding utf-8
Sheet 1 1
Title ""
Date ""
Rev ""
Comp ""
Comment1 ""
Comment2 ""
Comment3 ""
Comment4 ""
$EndDescr
$Comp
L Device:D_Schottky D3
U 1 1 5DB872C0
P 10500 3750
F 0 "D3" H 10500 3534 50  0000 C CNN
F 1 "MBR10100" H 10500 3625 50  0000 C CNN
F 2 "Package_TO_SOT_THT:TO-220-2_Vertical" H 10500 3750 50  0001 C CNN
F 3 "~" H 10500 3750 50  0001 C CNN
	1    10500 3750
	-1   0    0    1   
$EndComp
$Comp
L Device:CP C2
U 1 1 5DB880A5
P 10850 3950
F 0 "C2" H 10968 3996 50  0000 L CNN
F 1 "1000u/25V" H 10968 3905 50  0000 L CNN
F 2 "Capacitor_THT:CP_Radial_D10.0mm_P5.00mm" H 10888 3800 50  0001 C CNN
F 3 "~" H 10850 3950 50  0001 C CNN
	1    10850 3950
	1    0    0    -1  
$EndComp
Wire Wire Line
	10850 3800 10850 3750
Wire Wire Line
	10850 3750 10650 3750
$Comp
L power:GND #PWR0101
U 1 1 5DB89398
P 10850 4100
F 0 "#PWR0101" H 10850 3850 50  0001 C CNN
F 1 "GND" H 10855 3927 50  0000 C CNN
F 2 "" H 10850 4100 50  0001 C CNN
F 3 "" H 10850 4100 50  0001 C CNN
	1    10850 4100
	1    0    0    -1  
$EndComp
$Comp
L power:GND #PWR0103
U 1 1 5DB8BE3B
P 10150 4450
F 0 "#PWR0103" H 10150 4200 50  0001 C CNN
F 1 "GND" H 10155 4277 50  0000 C CNN
F 2 "" H 10150 4450 50  0001 C CNN
F 3 "" H 10150 4450 50  0001 C CNN
	1    10150 4450
	1    0    0    -1  
$EndComp
$Comp
L Isolator:PC817 U1
U 1 1 5DB92028
P 9950 7050
F 0 "U1" H 9950 7375 50  0000 C CNN
F 1 "PC817" H 9950 7284 50  0000 C CNN
F 2 "Package_DIP:DIP-4_W7.62mm" H 9750 6850 50  0001 L CIN
F 3 "http://www.soselectronic.cz/a_info/resource/d/pc817.pdf" H 9950 7050 50  0001 L CNN
	1    9950 7050
	-1   0    0    -1  
$EndComp
$Comp
L Device:R R3
U 1 1 5DB92CEB
P 10400 6600
F 0 "R3" H 10470 6646 50  0000 L CNN
F 1 "1k" H 10470 6555 50  0000 L CNN
F 2 "Resistor_THT:R_Axial_DIN0204_L3.6mm_D1.6mm_P7.62mm_Horizontal" V 10330 6600 50  0001 C CNN
F 3 "~" H 10400 6600 50  0001 C CNN
	1    10400 6600
	1    0    0    -1  
$EndComp
$Comp
L Device:Q_NMOS_GDS Q1
U 1 1 5DB96210
P 9050 5000
F 0 "Q1" H 9256 5046 50  0000 L CNN
F 1 "IRF840" H 9256 4955 50  0000 L CNN
F 2 "Package_TO_SOT_THT:TO-220-3_Vertical" H 9250 5100 50  0001 C CNN
F 3 "~" H 9050 5000 50  0001 C CNN
	1    9050 5000
	1    0    0    -1  
$EndComp
$Comp
L power:GNDA #PWR0107
U 1 1 5DB96ED3
P 9150 5950
F 0 "#PWR0107" H 9150 5700 50  0001 C CNN
F 1 "GNDA" H 9155 5777 50  0000 C CNN
F 2 "" H 9150 5950 50  0001 C CNN
F 3 "" H 9150 5950 50  0001 C CNN
	1    9150 5950
	1    0    0    -1  
$EndComp
$Comp
L Device:R R2
U 1 1 5DB98099
P 9150 5700
F 0 "R2" H 9220 5746 50  0000 L CNN
F 1 "0.1/3W" H 9220 5655 50  0000 L CNN
F 2 "Resistor_THT:R_Axial_DIN0309_L9.0mm_D3.2mm_P5.08mm_Vertical" V 9080 5700 50  0001 C CNN
F 3 "~" H 9150 5700 50  0001 C CNN
	1    9150 5700
	1    0    0    -1  
$EndComp
Wire Wire Line
	9150 5950 9150 5850
$Comp
L Device:CP C1
U 1 1 5DBA5EB7
P 8200 3100
F 0 "C1" H 8318 3146 50  0000 L CNN
F 1 "100u/450V" H 8050 3450 50  0000 L CNN
F 2 "Capacitor_THT:CP_Radial_D18.0mm_P7.50mm" H 8238 2950 50  0001 C CNN
F 3 "~" H 8200 3100 50  0001 C CNN
	1    8200 3100
	1    0    0    -1  
$EndComp
$Comp
L power:GNDA #PWR0109
U 1 1 5DBA6C61
P 8200 3250
F 0 "#PWR0109" H 8200 3000 50  0001 C CNN
F 1 "GNDA" H 8205 3077 50  0000 C CNN
F 2 "" H 8200 3250 50  0001 C CNN
F 3 "" H 8200 3250 50  0001 C CNN
	1    8200 3250
	1    0    0    -1  
$EndComp
$Comp
L Device:D_Bridge_+AA- D1
U 1 1 5DBA8516
P 7150 2850
F 0 "D1" H 7300 3100 50  0000 L CNN
F 1 "D_Bridge_+-AA" H 7494 2805 50  0001 L CNN
F 2 "Diode_THT:Diode_Bridge_19.0x3.5x10.0mm_P5.0mm" H 7150 2850 50  0001 C CNN
F 3 "~" H 7150 2850 50  0001 C CNN
	1    7150 2850
	1    0    0    1   
$EndComp
$Comp
L power:GNDA #PWR0110
U 1 1 5DBA9B88
P 6700 2950
F 0 "#PWR0110" H 6700 2700 50  0001 C CNN
F 1 "GNDA" H 6705 2777 50  0000 C CNN
F 2 "" H 6700 2950 50  0001 C CNN
F 3 "" H 6700 2950 50  0001 C CNN
	1    6700 2950
	1    0    0    -1  
$EndComp
Wire Wire Line
	6700 2950 6700 2850
Wire Wire Line
	6700 2850 6850 2850
$Comp
L Connector:Conn_01x02_Male J1
U 1 1 5DBAADCC
P 3900 2850
F 0 "J1" H 4008 3031 50  0000 C CNN
F 1 "AC_IN" H 4008 2940 50  0000 C CNN
F 2 "TerminalBlock:TerminalBlock_bornier-2_P5.08mm" H 3900 2850 50  0001 C CNN
F 3 "~" H 3900 2850 50  0001 C CNN
	1    3900 2850
	1    0    0    -1  
$EndComp
Wire Wire Line
	7150 2450 7150 2550
$Comp
L Device:D_Schottky D2
U 1 1 5DBB1A0C
P 8850 4150
F 0 "D2" H 8850 4274 50  0000 C CNN
F 1 "1N5822" H 8850 4050 50  0000 C CNN
F 2 "Diode_THT:D_T-1_P10.16mm_Horizontal" H 8850 4150 50  0001 C CNN
F 3 "~" H 8850 4150 50  0001 C CNN
	1    8850 4150
	1    0    0    -1  
$EndComp
$Comp
L Device:R R1
U 1 1 5DBCBC05
P 8000 3650
F 0 "R1" H 7930 3604 50  0000 R CNN
F 1 "56k/2W" H 7930 3695 50  0000 R CNN
F 2 "Resistor_THT:R_Axial_DIN0309_L9.0mm_D3.2mm_P5.08mm_Vertical" V 7930 3650 50  0001 C CNN
F 3 "~" H 8000 3650 50  0001 C CNN
	1    8000 3650
	-1   0    0    1   
$EndComp
Wire Wire Line
	9150 3950 9150 4800
$Comp
L power:GNDA #PWR0111
U 1 1 5DBD4E02
P 9550 4450
F 0 "#PWR0111" H 9550 4200 50  0001 C CNN
F 1 "GNDA" H 9555 4277 50  0000 C CNN
F 2 "" H 9550 4450 50  0001 C CNN
F 3 "" H 9550 4450 50  0001 C CNN
	1    9550 4450
	1    0    0    -1  
$EndComp
Wire Wire Line
	9550 4450 9550 4350
Wire Wire Line
	7800 5000 8650 5000
$Comp
L Device:D_Zener D6
U 1 1 5DBFE275
P 9150 3200
F 0 "D6" V 9196 3121 50  0000 R CNN
F 1 "TVS" V 9105 3121 50  0000 R CNN
F 2 "Diode_THT:D_T-1_P10.16mm_Horizontal" H 9150 3200 50  0001 C CNN
F 3 "~" H 9150 3200 50  0001 C CNN
	1    9150 3200
	0    -1   -1   0   
$EndComp
Wire Wire Line
	9150 3800 9150 3950
Connection ~ 9150 3950
Wire Wire Line
	9150 3500 9150 3450
Wire Wire Line
	9150 3050 9150 2850
Wire Wire Line
	9600 3750 9600 2850
Wire Wire Line
	9600 2850 9150 2850
Connection ~ 9150 2850
$Comp
L Reference_Voltage:TL431LP U2
U 1 1 5EB2CC9A
P 10400 7400
F 0 "U2" V 10354 7330 50  0000 R CNN
F 1 "TL431LP" V 10445 7330 50  0000 R CNN
F 2 "Package_TO_SOT_THT:TO-92_Inline_Wide" H 10400 7250 50  0001 C CIN
F 3 "http://www.ti.com/lit/ds/symlink/tl431.pdf" H 10400 7400 50  0001 C CIN
	1    10400 7400
	0    1    -1   0   
$EndComp
Wire Wire Line
	10250 6950 10400 6950
Wire Wire Line
	10400 6950 10400 6750
Wire Wire Line
	10400 7300 10400 7150
Wire Wire Line
	10400 7150 10250 7150
$Comp
L power:GND #PWR0104
U 1 1 5EB314CC
P 10400 7550
F 0 "#PWR0104" H 10400 7300 50  0001 C CNN
F 1 "GND" H 10405 7377 50  0000 C CNN
F 2 "" H 10400 7550 50  0001 C CNN
F 3 "" H 10400 7550 50  0001 C CNN
	1    10400 7550
	1    0    0    -1  
$EndComp
Wire Wire Line
	10400 7550 10400 7500
$Comp
L Device:C_Small C3
U 1 1 5EB32A2E
P 11350 7150
F 0 "C3" V 11121 7150 50  0000 C CNN
F 1 "10n" V 11212 7150 50  0000 C CNN
F 2 "Capacitor_THT:C_Disc_D4.3mm_W1.9mm_P5.00mm" H 11350 7150 50  0001 C CNN
F 3 "~" H 11350 7150 50  0001 C CNN
	1    11350 7150
	0    1    1    0   
$EndComp
$Comp
L Device:R R6
U 1 1 5EB33635
P 11000 7150
F 0 "R6" V 10793 7150 50  0000 C CNN
F 1 "100k" V 10884 7150 50  0000 C CNN
F 2 "Resistor_THT:R_Axial_DIN0204_L3.6mm_D1.6mm_P7.62mm_Horizontal" V 10930 7150 50  0001 C CNN
F 3 "~" H 11000 7150 50  0001 C CNN
	1    11000 7150
	0    1    1    0   
$EndComp
Connection ~ 10400 7150
Wire Wire Line
	11150 7150 11250 7150
$Comp
L Device:R R7
U 1 1 5EB370F7
P 11600 6800
F 0 "R7" H 11670 6846 50  0000 L CNN
F 1 "6.8k" H 11670 6755 50  0000 L CNN
F 2 "Resistor_THT:R_Axial_DIN0204_L3.6mm_D1.6mm_P7.62mm_Horizontal" V 11530 6800 50  0001 C CNN
F 3 "~" H 11600 6800 50  0001 C CNN
	1    11600 6800
	1    0    0    -1  
$EndComp
$Comp
L Device:R R8
U 1 1 5EB376CF
P 11600 7600
F 0 "R8" H 11670 7646 50  0000 L CNN
F 1 "1k" H 11670 7555 50  0000 L CNN
F 2 "Resistor_SMD:R_1206_3216Metric_Pad1.42x1.75mm_HandSolder" V 11530 7600 50  0001 C CNN
F 3 "~" H 11600 7600 50  0001 C CNN
	1    11600 7600
	1    0    0    -1  
$EndComp
$Comp
L power:GND #PWR0105
U 1 1 5EB37D7E
P 11600 7750
F 0 "#PWR0105" H 11600 7500 50  0001 C CNN
F 1 "GND" H 11605 7577 50  0000 C CNN
F 2 "" H 11600 7750 50  0001 C CNN
F 3 "" H 11600 7750 50  0001 C CNN
	1    11600 7750
	1    0    0    -1  
$EndComp
Wire Wire Line
	11600 6950 11600 7150
Wire Wire Line
	11600 7150 11450 7150
Wire Wire Line
	11600 7450 11600 7400
Connection ~ 11600 7150
Connection ~ 11600 7400
Wire Wire Line
	11600 7400 11600 7150
$Comp
L Device:R R5
U 1 1 5EB40E7A
P 10700 6600
F 0 "R5" H 10770 6646 50  0000 L CNN
F 1 "1k" H 10770 6555 50  0000 L CNN
F 2 "Resistor_THT:R_Axial_DIN0204_L3.6mm_D1.6mm_P7.62mm_Horizontal" V 10630 6600 50  0001 C CNN
F 3 "~" H 10700 6600 50  0001 C CNN
	1    10700 6600
	1    0    0    -1  
$EndComp
Wire Wire Line
	10700 6750 10700 7150
Wire Wire Line
	10400 7150 10700 7150
Wire Wire Line
	10850 7150 10700 7150
Connection ~ 10700 7150
Wire Wire Line
	10500 7400 11600 7400
Wire Wire Line
	10400 6450 10400 6000
Wire Wire Line
	10400 6000 10700 6000
Wire Wire Line
	10700 6450 10700 6000
Connection ~ 10700 6000
Wire Wire Line
	11600 6650 11600 6000
$Comp
L Device:D_Schottky D4
U 1 1 5EB50455
P 9150 3650
F 0 "D4" V 9104 3729 50  0000 L CNN
F 1 "UF4007" V 9195 3729 50  0000 L CNN
F 2 "Diode_THT:D_T-1_P10.16mm_Horizontal" H 9150 3650 50  0001 C CNN
F 3 "~" H 9150 3650 50  0001 C CNN
	1    9150 3650
	0    1    1    0   
$EndComp
Wire Wire Line
	10150 4450 10150 4350
Wire Wire Line
	10150 4350 10050 4350
Wire Wire Line
	10350 3750 10150 3750
Wire Wire Line
	10050 3850 10150 3850
Wire Wire Line
	10150 3850 10150 3750
Connection ~ 10150 3750
Wire Wire Line
	10150 3750 10050 3750
Wire Wire Line
	10050 4250 10150 4250
Wire Wire Line
	10150 4250 10150 4350
Connection ~ 10150 4350
Wire Wire Line
	8000 3500 8000 2850
Connection ~ 8000 2850
Wire Wire Line
	8000 3800 8000 4150
Wire Wire Line
	8000 2850 8200 2850
Wire Wire Line
	8200 2950 8200 2850
Connection ~ 8200 2850
Wire Wire Line
	8200 2850 8550 2850
$Comp
L Device:C C5
U 1 1 5EB4464E
P 8850 3200
F 0 "C5" H 8900 3300 50  0000 L CNN
F 1 "10n/1kV" H 8700 3650 50  0000 L CNN
F 2 "Capacitor_THT:C_Disc_D5.0mm_W2.5mm_P5.00mm" H 8888 3050 50  0001 C CNN
F 3 "~" H 8850 3200 50  0001 C CNN
	1    8850 3200
	1    0    0    -1  
$EndComp
Wire Wire Line
	8850 3350 8850 3450
Wire Wire Line
	8850 3450 9150 3450
Connection ~ 9150 3450
Wire Wire Line
	9150 3450 9150 3350
Wire Wire Line
	8850 3050 8850 2850
Connection ~ 8850 2850
Wire Wire Line
	8850 2850 9150 2850
$Comp
L Device:R R10
U 1 1 5EB4A4FA
P 8550 3200
F 0 "R10" H 8600 3450 50  0000 L CNN
F 1 "50k" H 8600 3350 50  0000 L CNN
F 2 "Resistor_THT:R_Axial_DIN0309_L9.0mm_D3.2mm_P5.08mm_Vertical" V 8480 3200 50  0001 C CNN
F 3 "~" H 8550 3200 50  0001 C CNN
	1    8550 3200
	1    0    0    -1  
$EndComp
Wire Wire Line
	8550 3050 8550 2850
Connection ~ 8550 2850
Wire Wire Line
	8550 2850 8850 2850
Wire Wire Line
	8550 3350 8550 3450
Wire Wire Line
	8550 3450 8850 3450
Connection ~ 8850 3450
$Comp
L Device:Fuse F1
U 1 1 5EB78994
P 4450 2650
F 0 "F1" V 4253 2650 50  0000 C CNN
F 1 "1A" V 4344 2650 50  0000 C CNN
F 2 "Fuse:Fuse_Littelfuse_395Series" V 4380 2650 50  0001 C CNN
F 3 "~" H 4450 2650 50  0001 C CNN
	1    4450 2650
	0    1    1    0   
$EndComp
$Comp
L pspice:INDUCTOR L1
U 1 1 5F1D88CE
P 11350 3750
F 0 "L1" H 11350 3965 50  0000 C CNN
F 1 "INDUCTOR" H 11350 3874 50  0000 C CNN
F 2 "Inductor_THT:L_Toroid_Vertical_L16.5mm_W11.4mm_P7.62mm_Pulse_KM-2" H 11350 3750 50  0001 C CNN
F 3 "~" H 11350 3750 50  0001 C CNN
	1    11350 3750
	1    0    0    -1  
$EndComp
Wire Wire Line
	10700 6000 11600 6000
Wire Wire Line
	13300 5000 13300 4900
$Comp
L power:GND #PWR0112
U 1 1 5EB688A0
P 13300 5000
F 0 "#PWR0112" H 13300 4750 50  0001 C CNN
F 1 "GND" H 13305 4827 50  0000 C CNN
F 2 "" H 13300 5000 50  0001 C CNN
F 3 "" H 13300 5000 50  0001 C CNN
	1    13300 5000
	1    0    0    -1  
$EndComp
Wire Wire Line
	13300 4550 13300 4600
Wire Wire Line
	13150 4550 13300 4550
Wire Wire Line
	12700 4550 12700 3750
Connection ~ 12700 4550
Wire Wire Line
	12850 4550 12700 4550
$Comp
L Device:R R9
U 1 1 5EB6394F
P 13300 4750
F 0 "R9" H 13370 4796 50  0000 L CNN
F 1 "1k" H 13370 4705 50  0000 L CNN
F 2 "Resistor_THT:R_Axial_DIN0204_L3.6mm_D1.6mm_P2.54mm_Vertical" V 13230 4750 50  0001 C CNN
F 3 "~" H 13300 4750 50  0001 C CNN
	1    13300 4750
	1    0    0    -1  
$EndComp
$Comp
L Device:LED D5
U 1 1 5EB62E6E
P 13000 4550
F 0 "D5" H 12993 4295 50  0000 C CNN
F 1 "LED" H 12993 4386 50  0000 C CNN
F 2 "LED_THT:LED_D5.0mm" H 13000 4550 50  0001 C CNN
F 3 "~" H 13000 4550 50  0001 C CNN
	1    13000 4550
	-1   0    0    1   
$EndComp
Wire Wire Line
	12700 3750 13000 3750
Connection ~ 12700 3750
Wire Wire Line
	11900 3750 12700 3750
Wire Wire Line
	11900 3800 11900 3750
$Comp
L power:GND #PWR0106
U 1 1 5EB48235
P 11900 4100
F 0 "#PWR0106" H 11900 3850 50  0001 C CNN
F 1 "GND" H 11905 3927 50  0000 C CNN
F 2 "" H 11900 4100 50  0001 C CNN
F 3 "" H 11900 4100 50  0001 C CNN
	1    11900 4100
	1    0    0    -1  
$EndComp
$Comp
L Device:CP C4
U 1 1 5EB4822F
P 11900 3950
F 0 "C4" H 12018 3996 50  0000 L CNN
F 1 "1000u/25V" H 12018 3905 50  0000 L CNN
F 2 "Capacitor_THT:CP_Radial_D10.0mm_P5.00mm" H 11938 3800 50  0001 C CNN
F 3 "~" H 11900 3950 50  0001 C CNN
	1    11900 3950
	1    0    0    -1  
$EndComp
$Comp
L power:GND #PWR0102
U 1 1 5DB8A1CB
P 13000 3850
F 0 "#PWR0102" H 13000 3600 50  0001 C CNN
F 1 "GND" H 13005 3677 50  0000 C CNN
F 2 "" H 13000 3850 50  0001 C CNN
F 3 "" H 13000 3850 50  0001 C CNN
	1    13000 3850
	1    0    0    -1  
$EndComp
$Comp
L Connector:Conn_01x02_Male J3
U 1 1 5DB7FDA9
P 13200 3850
F 0 "J3" H 13172 3732 50  0000 R CNN
F 1 "19V/5A" H 13172 3823 50  0000 R CNN
F 2 "TerminalBlock:TerminalBlock_bornier-2_P5.08mm" H 13200 3850 50  0001 C CNN
F 3 "~" H 13200 3850 50  0001 C CNN
	1    13200 3850
	-1   0    0    1   
$EndComp
Wire Wire Line
	11900 3750 11600 3750
Connection ~ 11900 3750
Wire Wire Line
	11100 3750 10850 3750
Connection ~ 10850 3750
Wire Wire Line
	11600 6000 12700 6000
Connection ~ 11600 6000
Wire Wire Line
	7150 3150 7150 3400
$Comp
L Device:C C10
U 1 1 5F480472
P 5950 2900
F 0 "C10" H 6065 2946 50  0000 L CNN
F 1 "0.033/250V" H 6065 2855 50  0000 L CNN
F 2 "Capacitor_THT:C_Rect_L16.5mm_W4.7mm_P15.00mm_MKT" H 5988 2750 50  0001 C CNN
F 3 "~" H 5950 2900 50  0001 C CNN
	1    5950 2900
	1    0    0    -1  
$EndComp
$Comp
L Device:C C7
U 1 1 5F48115D
P 4950 2900
F 0 "C7" H 4900 2450 50  0000 L CNN
F 1 "0.033/250V" H 4700 2550 50  0000 L CNN
F 2 "Capacitor_THT:C_Rect_L16.5mm_W4.7mm_P15.00mm_MKT" H 4988 2750 50  0001 C CNN
F 3 "~" H 4950 2900 50  0001 C CNN
	1    4950 2900
	1    0    0    -1  
$EndComp
$Comp
L Device:EMI_Filter_CommonMode FL1
U 1 1 5F481834
P 5450 2900
F 0 "FL1" H 5450 3181 50  0000 C CNN
F 1 "EMI" H 5450 3090 50  0000 C CNN
F 2 "MyLibrary:EMI_Common_3" H 5450 2940 50  0001 C CNN
F 3 "~" H 5450 2940 50  0001 C CNN
	1    5450 2900
	1    0    0    -1  
$EndComp
Wire Wire Line
	5650 2800 5650 2450
Wire Wire Line
	5650 2450 5950 2450
Wire Wire Line
	5950 2750 5950 2450
Connection ~ 5950 2450
Wire Wire Line
	5950 2450 7150 2450
Wire Wire Line
	5950 3050 5950 3400
Wire Wire Line
	5950 3400 7150 3400
Wire Wire Line
	5650 3000 5650 3400
Wire Wire Line
	5650 3400 5950 3400
Connection ~ 5950 3400
Wire Wire Line
	4950 3050 4950 3150
Wire Wire Line
	4600 2650 4950 2650
Wire Wire Line
	4950 2650 4950 2750
Wire Wire Line
	5250 2800 5250 2650
Wire Wire Line
	5250 2650 4950 2650
Connection ~ 4950 2650
Wire Wire Line
	4950 3150 5250 3150
Wire Wire Line
	5250 3150 5250 3000
Connection ~ 4950 3150
Wire Wire Line
	9150 5200 9150 5400
$Comp
L Regulator_Controller:UC3843_SOIC8 U3
U 1 1 5F4A9EEA
P 6150 5200
F 0 "U3" H 6450 5750 50  0000 C CNN
F 1 "UC3843_SOIC8" H 6450 5650 50  0000 C CNN
F 2 "Package_SO:SOIC-8_3.9x4.9mm_P1.27mm" H 6150 4750 50  0001 C CNN
F 3 "http://www.ti.com/lit/ds/symlink/uc3842.pdf" H 6150 5200 50  0001 C CNN
	1    6150 5200
	1    0    0    -1  
$EndComp
$Comp
L power:GNDA #PWR0108
U 1 1 5F4AADDC
P 6150 5600
F 0 "#PWR0108" H 6150 5350 50  0001 C CNN
F 1 "GNDA" H 6155 5427 50  0000 C CNN
F 2 "" H 6150 5600 50  0001 C CNN
F 3 "" H 6150 5600 50  0001 C CNN
	1    6150 5600
	1    0    0    -1  
$EndComp
$Comp
L Device:C_Small C8
U 1 1 5F4AB991
P 5150 4900
F 0 "C8" H 5242 4946 50  0000 L CNN
F 1 "10n" H 5242 4855 50  0000 L CNN
F 2 "Capacitor_SMD:C_1206_3216Metric_Pad1.42x1.75mm_HandSolder" H 5150 4900 50  0001 C CNN
F 3 "~" H 5150 4900 50  0001 C CNN
	1    5150 4900
	1    0    0    -1  
$EndComp
$Comp
L Device:R R4
U 1 1 5F4AC3FF
P 4850 4900
F 0 "R4" H 4920 4946 50  0000 L CNN
F 1 "10k" H 4920 4855 50  0000 L CNN
F 2 "Resistor_SMD:R_1206_3216Metric_Pad1.42x1.75mm_HandSolder" V 4780 4900 50  0001 C CNN
F 3 "~" H 4850 4900 50  0001 C CNN
	1    4850 4900
	1    0    0    -1  
$EndComp
Wire Wire Line
	4850 4750 4850 4700
Wire Wire Line
	4850 4700 5150 4700
Wire Wire Line
	5150 4700 5150 4800
Wire Wire Line
	4850 5050 4850 5100
Wire Wire Line
	4850 5100 5150 5100
Wire Wire Line
	5150 5100 5150 5000
Wire Wire Line
	5150 5100 5650 5100
Connection ~ 5150 5100
Wire Wire Line
	5650 5000 5500 5000
Wire Wire Line
	5500 5000 5500 4700
Wire Wire Line
	5500 4700 5150 4700
Connection ~ 5150 4700
$Comp
L Device:C_Small C6
U 1 1 5F4BCE69
P 4900 5650
F 0 "C6" H 4700 5700 50  0000 L CNN
F 1 "100n" H 4650 5600 50  0000 L CNN
F 2 "Capacitor_SMD:C_1206_3216Metric_Pad1.42x1.75mm_HandSolder" H 4900 5650 50  0001 C CNN
F 3 "~" H 4900 5650 50  0001 C CNN
	1    4900 5650
	1    0    0    -1  
$EndComp
$Comp
L Device:C_Small C9
U 1 1 5F4BD8F5
P 5400 5650
F 0 "C9" H 5492 5696 50  0000 L CNN
F 1 "3.3n" H 5492 5605 50  0000 L CNN
F 2 "Capacitor_SMD:C_1206_3216Metric_Pad1.42x1.75mm_HandSolder" H 5400 5650 50  0001 C CNN
F 3 "~" H 5400 5650 50  0001 C CNN
	1    5400 5650
	1    0    0    -1  
$EndComp
$Comp
L Device:R R11
U 1 1 5F4BE08A
P 5150 5400
F 0 "R11" V 5350 5400 50  0000 C CNN
F 1 "10k" V 5250 5400 50  0000 C CNN
F 2 "Resistor_THT:R_Axial_DIN0204_L3.6mm_D1.6mm_P7.62mm_Horizontal" V 5080 5400 50  0001 C CNN
F 3 "~" H 5150 5400 50  0001 C CNN
	1    5150 5400
	0    1    1    0   
$EndComp
Wire Wire Line
	5400 5550 5400 5400
Wire Wire Line
	5400 5400 5650 5400
Wire Wire Line
	5400 5400 5300 5400
Connection ~ 5400 5400
Wire Wire Line
	4900 5550 4900 5400
Wire Wire Line
	4900 5400 5000 5400
$Comp
L power:GNDA #PWR0113
U 1 1 5F4D0DB5
P 5400 5750
F 0 "#PWR0113" H 5400 5500 50  0001 C CNN
F 1 "GNDA" H 5405 5577 50  0000 C CNN
F 2 "" H 5400 5750 50  0001 C CNN
F 3 "" H 5400 5750 50  0001 C CNN
	1    5400 5750
	1    0    0    -1  
$EndComp
$Comp
L power:GNDA #PWR0114
U 1 1 5F4D0FE7
P 4900 5750
F 0 "#PWR0114" H 4900 5500 50  0001 C CNN
F 1 "GNDA" H 4905 5577 50  0000 C CNN
F 2 "" H 4900 5750 50  0001 C CNN
F 3 "" H 4900 5750 50  0001 C CNN
	1    4900 5750
	1    0    0    -1  
$EndComp
Connection ~ 4900 5400
Wire Wire Line
	4850 5100 4450 5100
Connection ~ 4850 5100
Wire Wire Line
	4550 5400 4900 5400
Wire Wire Line
	4900 5400 4900 5300
Wire Wire Line
	4900 5300 5650 5300
$Comp
L Device:Ferrite_Bead_Small FB1
U 1 1 5F4FD1E1
P 8400 4150
F 0 "FB1" V 8255 4150 50  0000 C CNN
F 1 "Ferrite_Bead_Small" V 8254 4150 50  0001 C CNN
F 2 "Resistor_THT:R_Axial_DIN0207_L6.3mm_D2.5mm_P7.62mm_Horizontal" V 8330 4150 50  0001 C CNN
F 3 "~" H 8400 4150 50  0001 C CNN
	1    8400 4150
	0    1    1    0   
$EndComp
Wire Wire Line
	8500 4150 8700 4150
Wire Wire Line
	8000 4150 8300 4150
$Comp
L Device:R R12
U 1 1 5F507FAE
P 7650 5000
F 0 "R12" V 7550 4950 50  0000 L CNN
F 1 "22" V 7750 4950 50  0000 L CNN
F 2 "Resistor_THT:R_Axial_DIN0204_L3.6mm_D1.6mm_P5.08mm_Horizontal" V 7580 5000 50  0001 C CNN
F 3 "~" H 7650 5000 50  0001 C CNN
	1    7650 5000
	0    1    1    0   
$EndComp
Wire Wire Line
	6150 4150 6150 4800
$Comp
L Device:C_Small C12
U 1 1 5F526E6B
P 7150 5650
F 0 "C12" H 7242 5696 50  0000 L CNN
F 1 "470p" H 7242 5605 50  0000 L CNN
F 2 "Capacitor_SMD:C_1206_3216Metric_Pad1.42x1.75mm_HandSolder" H 7150 5650 50  0001 C CNN
F 3 "~" H 7150 5650 50  0001 C CNN
	1    7150 5650
	1    0    0    -1  
$EndComp
$Comp
L Device:R R13
U 1 1 5F527393
P 7650 5400
F 0 "R13" V 7850 5400 50  0000 C CNN
F 1 "1k" V 7750 5400 50  0000 C CNN
F 2 "Resistor_THT:R_Axial_DIN0204_L3.6mm_D1.6mm_P5.08mm_Horizontal" V 7580 5400 50  0001 C CNN
F 3 "~" H 7650 5400 50  0001 C CNN
	1    7650 5400
	0    1    1    0   
$EndComp
Wire Wire Line
	7500 5400 7150 5400
Wire Wire Line
	7150 5550 7150 5400
Connection ~ 7150 5400
Wire Wire Line
	7150 5400 6650 5400
$Comp
L power:GNDA #PWR0116
U 1 1 5F53A044
P 7150 5750
F 0 "#PWR0116" H 7150 5500 50  0001 C CNN
F 1 "GNDA" H 7155 5577 50  0000 C CNN
F 2 "" H 7150 5750 50  0001 C CNN
F 3 "" H 7150 5750 50  0001 C CNN
	1    7150 5750
	1    0    0    -1  
$EndComp
Connection ~ 8000 4150
$Comp
L Device:C_Small C11
U 1 1 5F5514F9
P 5950 4350
F 0 "C11" H 5750 4400 50  0000 L CNN
F 1 "100n" H 5700 4300 50  0000 L CNN
F 2 "Capacitor_SMD:C_1206_3216Metric_Pad1.42x1.75mm_HandSolder" H 5950 4350 50  0001 C CNN
F 3 "~" H 5950 4350 50  0001 C CNN
	1    5950 4350
	1    0    0    -1  
$EndComp
Wire Wire Line
	5950 4250 5950 4150
Wire Wire Line
	5950 4150 6150 4150
Connection ~ 6150 4150
$Comp
L power:GNDA #PWR0117
U 1 1 5F55876B
P 5950 4450
F 0 "#PWR0117" H 5950 4200 50  0001 C CNN
F 1 "GNDA" H 5955 4277 50  0000 C CNN
F 2 "" H 5950 4450 50  0001 C CNN
F 3 "" H 5950 4450 50  0001 C CNN
	1    5950 4450
	1    0    0    -1  
$EndComp
Wire Wire Line
	7800 5400 9150 5400
Connection ~ 9150 5400
Wire Wire Line
	9150 5400 9150 5550
$Comp
L Device:R R14
U 1 1 5F56C57F
P 8650 5700
F 0 "R14" H 8720 5746 50  0000 L CNN
F 1 "22k" H 8720 5655 50  0000 L CNN
F 2 "Resistor_SMD:R_1206_3216Metric_Pad1.42x1.75mm_HandSolder" V 8580 5700 50  0001 C CNN
F 3 "~" H 8650 5700 50  0001 C CNN
	1    8650 5700
	1    0    0    -1  
$EndComp
$Comp
L power:GNDA #PWR0118
U 1 1 5F56CDF1
P 8650 5850
F 0 "#PWR0118" H 8650 5600 50  0001 C CNN
F 1 "GNDA" H 8655 5677 50  0000 C CNN
F 2 "" H 8650 5850 50  0001 C CNN
F 3 "" H 8650 5850 50  0001 C CNN
	1    8650 5850
	1    0    0    -1  
$EndComp
Wire Wire Line
	8650 5550 8650 5000
Connection ~ 8650 5000
Wire Wire Line
	8650 5000 8850 5000
Wire Wire Line
	12700 4550 12700 6000
Wire Wire Line
	9650 6950 4550 6950
Wire Wire Line
	4550 5400 4550 6950
Wire Wire Line
	4450 5100 4450 7150
$Comp
L Device:R R16
U 1 1 5F593B61
P 9500 7500
F 0 "R16" H 9570 7546 50  0000 L CNN
F 1 "1k" H 9570 7455 50  0000 L CNN
F 2 "Resistor_SMD:R_1206_3216Metric_Pad1.42x1.75mm_HandSolder" V 9430 7500 50  0001 C CNN
F 3 "~" H 9500 7500 50  0001 C CNN
	1    9500 7500
	1    0    0    -1  
$EndComp
Wire Wire Line
	9500 7350 9500 7150
Wire Wire Line
	9500 7150 9650 7150
$Comp
L power:GNDA #PWR0119
U 1 1 5F59AE60
P 9500 7650
F 0 "#PWR0119" H 9500 7400 50  0001 C CNN
F 1 "GNDA" H 9505 7477 50  0000 C CNN
F 2 "" H 9500 7650 50  0001 C CNN
F 3 "" H 9500 7650 50  0001 C CNN
	1    9500 7650
	1    0    0    -1  
$EndComp
$Comp
L Device:R R15
U 1 1 5F59B122
P 9100 7150
F 0 "R15" V 9300 7150 50  0000 C CNN
F 1 "4.7k" V 9200 7150 50  0000 C CNN
F 2 "Resistor_THT:R_Axial_DIN0204_L3.6mm_D1.6mm_P5.08mm_Horizontal" V 9030 7150 50  0001 C CNN
F 3 "~" H 9100 7150 50  0001 C CNN
	1    9100 7150
	0    1    1    0   
$EndComp
Wire Wire Line
	9250 7150 9500 7150
Connection ~ 9500 7150
Wire Wire Line
	8950 7150 4450 7150
$Comp
L Device:CP_Small C13
U 1 1 5F5C6E9B
P 5550 4350
F 0 "C13" H 5500 4700 50  0000 L CNN
F 1 "100u/25V" H 5350 4600 50  0000 L CNN
F 2 "Capacitor_THT:CP_Radial_D5.0mm_P2.00mm" H 5550 4350 50  0001 C CNN
F 3 "~" H 5550 4350 50  0001 C CNN
	1    5550 4350
	1    0    0    -1  
$EndComp
Wire Wire Line
	5550 4250 5550 4150
Wire Wire Line
	5550 4150 5950 4150
Connection ~ 5950 4150
$Comp
L power:GNDA #PWR0120
U 1 1 5F5CFB57
P 5550 4450
F 0 "#PWR0120" H 5550 4200 50  0001 C CNN
F 1 "GNDA" H 5555 4277 50  0000 C CNN
F 2 "" H 5550 4450 50  0001 C CNN
F 3 "" H 5550 4450 50  0001 C CNN
	1    5550 4450
	1    0    0    -1  
$EndComp
Wire Wire Line
	6650 5000 7500 5000
Wire Wire Line
	6150 4150 8000 4150
Wire Wire Line
	4300 2650 4100 2650
Wire Wire Line
	4100 2650 4100 2850
Wire Wire Line
	4100 2950 4100 3150
Wire Wire Line
	4100 3150 4950 3150
Wire Wire Line
	7450 2850 8000 2850
$Comp
L My_Library:ETD29 TR1
U 1 1 5F4F9D9C
P 9850 4050
F 0 "TR1" H 9850 4575 50  0000 C CNN
F 1 "ETD29" H 9850 4484 50  0000 C CNN
F 2 "MyLibrary:ETD29_Horizontal" H 9750 4350 50  0001 C CNN
F 3 "" H 9750 4350 50  0001 C CNN
	1    9850 4050
	1    0    0    -1  
$EndComp
Wire Wire Line
	9550 4350 9650 4350
Wire Wire Line
	9000 4150 9650 4150
Wire Wire Line
	9150 3950 9650 3950
Wire Wire Line
	9650 3750 9600 3750
$Comp
L Device:C_Small C14
U 1 1 5F50199C
P 10350 3200
F 0 "C14" V 10200 3150 50  0000 L CNN
F 1 "1n" V 10500 3150 50  0000 L CNN
F 2 "Capacitor_SMD:C_1206_3216Metric_Pad1.42x1.75mm_HandSolder" H 10350 3200 50  0001 C CNN
F 3 "~" H 10350 3200 50  0001 C CNN
	1    10350 3200
	0    1    1    0   
$EndComp
$Comp
L Device:R R?
U 1 1 5F536E85
P 10600 3200
F 0 "R?" V 10800 3200 50  0000 C CNN
F 1 "1k" V 10700 3200 50  0000 C CNN
F 2 "Resistor_THT:R_Axial_DIN0204_L3.6mm_D1.6mm_P5.08mm_Horizontal" V 10530 3200 50  0001 C CNN
F 3 "~" H 10600 3200 50  0001 C CNN
	1    10600 3200
	0    1    1    0   
$EndComp
$EndSCHEMATC
